<?xml version="1.0" encoding="iso-8859-1"?>
<!-- Generator: Adobe Illustrator 19.0.0, SVG Export Plug-In . SVG Version: 6.00 Build 0)  -->
<svg version="1.1" id="Capa_1" xmlns="http://www.w3.org/2000/svg" xmlns:xlink="http://www.w3.org/1999/xlink" x="0px" y="0px"
	 viewBox="0 0 512 512" style="enable-background:new 0 0 512 512;" xml:space="preserve">
<polygon style="fill:#BBC6D4;" points="375.018,187.233 187.233,375.018 157.393,357.178 136.982,324.767 324.767,136.982 
	356.671,158.886 "/>
<rect x="324.941" y="136.912" transform="matrix(-0.7071 0.7071 -0.7071 -0.7071 701.5957 54.2831)" style="fill:#A7B7C6;" width="29.23" height="71.069"/>
<g>
	<path style="fill:#555E6B;" d="M231.036,445.367l-61.135,61.134c-7.331,7.331-19.216,7.331-26.547,0L5.498,368.646
		c-7.331-7.331-7.331-19.216,0-26.547l61.135-61.135c7.331-7.331,19.216-7.331,26.547,0L231.036,418.82
		C238.366,426.151,238.366,438.037,231.036,445.367z"/>
	<path style="fill:#555E6B;" d="M506.502,169.901l-61.135,61.135c-7.331,7.331-19.216,7.331-26.547,0L280.964,93.18
		c-7.331-7.331-7.331-19.216,0-26.547l61.135-61.135c7.331-7.331,19.216-7.331,26.547,0l137.856,137.856
		C513.833,150.685,513.833,162.57,506.502,169.901z"/>
</g>
<rect x="56.266" y="347.228" transform="matrix(-0.7071 0.7071 -0.7071 -0.7071 480.2995 588.5095)" style="fill:#363C44;" width="123.999" height="92.999"/>
<path style="fill:#2D3238;" d="M231.036,418.82l-36.047-36.047l-87.682,87.682l36.047,36.047c7.331,7.331,19.216,7.331,26.547,0
	l61.135-61.134C238.366,438.037,238.366,426.151,231.036,418.82z"/>
<rect x="331.731" y="71.773" transform="matrix(-0.7071 0.7071 -0.7071 -0.7071 755.7712 -76.5057)" style="fill:#363C44;" width="123.999" height="92.999"/>
<path style="fill:#2D3238;" d="M506.502,143.354l-36.047-36.047l-87.682,87.682l36.047,36.047c7.331,7.331,19.216,7.331,26.547,0
	l61.134-61.134C513.833,162.57,513.833,150.685,506.502,143.354z"/>
<g>
</g>
<g>
</g>
<g>
</g>
<g>
</g>
<g>
</g>
<g>
</g>
<g>
</g>
<g>
</g>
<g>
</g>
<g>
</g>
<g>
</g>
<g>
</g>
<g>
</g>
<g>
</g>
<g>
</g>
</svg>
